^C:\SOURCE\CORTEX SERVICES\CORTEX\CORTEX CONSOLE\RELEASE\CORTEX CONSOLE.OBJ|C:\SOURCE\CORTEX SERVICES\CORTEX\CORTEX CONSOLE\RELEASE\CORTEX CONSOLE.RES|C:\SOURCE\CORTEX SERVICES\CORTEX\CORTEX CONSOLE\RELEASE\CORTEX CONSOLEDLG.OBJ|C:\SOURCE\CORTEX SERVICES\CORTEX\CORTEX CONSOLE\RELEASE\STDAFX.OBJ
/ERRORREPORT:PROMPT /OUT:".\Release\Cortex Console.exe" /INCREMENTAL:NO /NOLOGO /MANIFEST /ManifestFile:".\Release\Cortex Console.exe.intermediate.manifest" /MANIFESTUAC:"level='asInvoker' uiAccess='false'" /PDB:"C:\Source\Cortex Services\Cortex\Cortex Console\Release\Cortex Console.pdb" /SUBSYSTEM:WINDOWS /TLBID:1 /DYNAMICBASE /NXCOMPAT /IMPLIB:".\Release\Cortex Console.lib" /MACHINE:X86 ".\Release\Cortex Console.res"
".\Release\Cortex Console.obj"
".\Release\Cortex ConsoleDlg.obj"
.\Release\StdAfx.obj
