^C:\PROGRAM FILES\MICROSOFT VISUAL STUDIO 10.0\VC\INCLUDE\MANIFEST\DPIAWARE.MANIFEST|C:\SOURCE\CORTEX SERVICES\CORTEX\CORTEX CONSOLE\RELEASE\CORTEX CONSOLE.EXE.INTERMEDIATE.MANIFEST
C:\WINDOWS\WINDOWSSHELL.MANIFEST
C:\PROGRAM FILES\MICROSOFT VISUAL STUDIO 10.0\VC\INCLUDE\MANIFEST\DPIAWARE.MANIFEST
C:\WINDOWS\REGISTRATION\R00000000001E.CLB
C:\WINDOWS\MICROSOFT.NET\FRAMEWORK\V1.1.4322\MSCORWKS.DLL
C:\WINDOWS\MICROSOFT.NET\FRAMEWORK\V2.0.50727\MSCORWKS.DLL
C:\WINDOWS\MICROSOFT.NET\FRAMEWORK\V4.0.30319\CLR.DLL
C:\PROGRAM FILES\MICROSOFT SDKS\WINDOWS\V7.0A\BIN\MT.EXE.CONFIG
C:\SOURCE\CORTEX SERVICES\CORTEX\CORTEX CONSOLE\RELEASE\CORTEX CONSOLE.EXE
