^C:\SOURCE\CORTEX SERVICES\CORTEX\STDAFX.CPP
C:\SOURCE\CORTEX SERVICES\CORTEX\RELEASEMINSIZE\CORTEX.PCH
C:\SOURCE\CORTEX SERVICES\CORTEX\RELEASEMINSIZE\STDAFX.OBJ
C:\SOURCE\CORTEX SERVICES\CORTEX\RELEASEMINSIZE\VC100.PDB
